\relax 
\@writefile{toc}{\contentsline {section}{\numberline {1}Introduction}{1}}
\newlabel{sec:introduction}{{1}{1}}
\@writefile{toc}{\contentsline {subsection}{\numberline {1.1}The Project Problem}{1}}
\@writefile{toc}{\contentsline {subsection}{\numberline {1.2}The outcome}{1}}
\@writefile{toc}{\contentsline {subsubsection}{\numberline {1.2.1}Main Feature}{1}}
\@writefile{toc}{\contentsline {subsubsection}{\numberline {1.2.2}Result}{1}}
\@writefile{toc}{\contentsline {section}{\numberline {2}ISA Design}{1}}
\@writefile{toc}{\contentsline {subsection}{\numberline {2.1}Instruction Format}{1}}
\@writefile{lof}{\contentsline {figure}{\numberline {1}{\ignorespaces  Three instruction format}}{1}}
\newlabel{2.1a}{{1}{1}}
\@writefile{toc}{\contentsline {subsection}{\numberline {2.2}Instruction Set}{2}}
\@writefile{toc}{\contentsline {subsubsection}{\numberline {2.2.1}R-type instruction}{2}}
\@writefile{toc}{\contentsline {subsubsection}{\numberline {2.2.2}I-type instruction}{2}}
\@writefile{toc}{\contentsline {subsubsection}{\numberline {2.2.3}J-type instruction}{2}}
\@writefile{toc}{\contentsline {section}{\numberline {3}Data Path}{2}}
\@writefile{lof}{\contentsline {figure}{\numberline {2}{\ignorespaces  processor data path}}{2}}
\newlabel{2.1a}{{2}{2}}
\@writefile{toc}{\contentsline {subsection}{\numberline {3.1}Common Structure}{3}}
\@writefile{toc}{\contentsline {subsection}{\numberline {3.2}Special Structure}{3}}
\@writefile{toc}{\contentsline {subsubsection}{\numberline {3.2.1}Branch Multiplexer}{3}}
\@writefile{toc}{\contentsline {subsubsection}{\numberline {3.2.2}Direct Branch Mechanism}{3}}
\@writefile{toc}{\contentsline {subsubsection}{\numberline {3.2.3}String File Loading Mechanism}{3}}
\@writefile{toc}{\contentsline {section}{\numberline {4}Pipelined processor}{3}}
\@writefile{lof}{\contentsline {figure}{\numberline {3}{\ignorespaces  processor pipeline}}{3}}
\newlabel{2.1a}{{3}{3}}
\@writefile{toc}{\contentsline {subsection}{\numberline {4.1}Design}{4}}
\@writefile{toc}{\contentsline {subsubsection}{\numberline {4.1.1}Four-Stage-Pipeline Design}{4}}
\@writefile{toc}{\contentsline {subsection}{\numberline {4.2}HW modeling}{4}}
\@writefile{toc}{\contentsline {subsection}{\numberline {4.3}Simulation Result}{4}}
\@writefile{toc}{\contentsline {section}{\numberline {5}Multiprocessor}{4}}
\@writefile{toc}{\contentsline {subsection}{\numberline {5.1}Design}{4}}
\@writefile{toc}{\contentsline {subsection}{\numberline {5.2}HW modeling}{4}}
\@writefile{toc}{\contentsline {subsection}{\numberline {5.3}Simulation Result}{4}}
\@writefile{toc}{\contentsline {section}{\numberline {6}Conclusion}{4}}
\@writefile{toc}{\contentsline {section}{Appendix\nobreakspace  A: HL Program}{4}}
\@writefile{toc}{\contentsline {section}{Appendix\nobreakspace  B: Assemble code}{4}}
\@writefile{toc}{\contentsline {section}{Appendix\nobreakspace  C: VHDL code}{4}}
\@writefile{toc}{\contentsline {section}{Appendix\nobreakspace  D: Simulation Result}{4}}
