\relax 
\@writefile{toc}{\contentsline {section}{\numberline {1}Introduction}{1}}
\newlabel{sec:introduction}{{1}{1}}
\@writefile{toc}{\contentsline {subsection}{\numberline {1.1}The Project Problem}{1}}
\@writefile{toc}{\contentsline {subsection}{\numberline {1.2}The outcome}{1}}
\@writefile{toc}{\contentsline {subsubsection}{\numberline {1.2.1}Main Feature}{1}}
\@writefile{toc}{\contentsline {subsubsection}{\numberline {1.2.2}Result}{1}}
\@writefile{toc}{\contentsline {section}{\numberline {2}ISA Design}{1}}
\@writefile{toc}{\contentsline {subsection}{\numberline {2.1}Instruction Format}{1}}
\@writefile{lof}{\contentsline {figure}{\numberline {1}{\ignorespaces  Three instruction format}}{1}}
\newlabel{2.1a}{{1}{1}}
\@writefile{toc}{\contentsline {subsection}{\numberline {2.2}Instruction Set}{2}}
\@writefile{toc}{\contentsline {subsubsection}{\numberline {2.2.1}R-type instruction}{2}}
\@writefile{toc}{\contentsline {subsubsection}{\numberline {2.2.2}I-type instruction}{2}}
\@writefile{toc}{\contentsline {subsubsection}{\numberline {2.2.3}J-type instruction}{2}}
\@writefile{toc}{\contentsline {section}{\numberline {3}Data Path}{2}}
\@writefile{toc}{\contentsline {subsection}{\numberline {3.1}Common Structure}{2}}
\@writefile{lof}{\contentsline {figure}{\numberline {2}{\ignorespaces  single cycle data path}}{3}}
\newlabel{3a}{{2}{3}}
\@writefile{toc}{\contentsline {subsection}{\numberline {3.2}Special Structure}{3}}
\@writefile{toc}{\contentsline {subsubsection}{\numberline {3.2.1}Branch Multiplexer}{3}}
\@writefile{toc}{\contentsline {subsubsection}{\numberline {3.2.2}Direct Branch Mechanism}{3}}
\@writefile{toc}{\contentsline {subsubsection}{\numberline {3.2.3}String File Loading Mechanism}{3}}
\@writefile{toc}{\contentsline {section}{\numberline {4}Pipelined processor}{3}}
\@writefile{lof}{\contentsline {figure}{\numberline {3}{\ignorespaces  pipelined processor data path}}{3}}
\newlabel{3a}{{3}{3}}
\@writefile{toc}{\contentsline {subsection}{\numberline {4.1}Design}{3}}
\@writefile{toc}{\contentsline {subsubsection}{\numberline {4.1.1}Four-Stage-Pipeline Design}{3}}
\@writefile{toc}{\contentsline {subsubsection}{\numberline {4.1.2}Forwarding}{4}}
\@writefile{toc}{\contentsline {subsubsection}{\numberline {4.1.3}Hazard Detection}{4}}
\@writefile{toc}{\contentsline {subsection}{\numberline {4.2}HW modelling}{4}}
\@writefile{toc}{\contentsline {subsubsection}{\numberline {4.2.1}Pipeline stage Register}{4}}
\@writefile{toc}{\contentsline {subsubsection}{\numberline {4.2.2}Forwarding Unit}{4}}
\@writefile{toc}{\contentsline {subsubsection}{\numberline {4.2.3}Hazard Detection Unit}{4}}
\@writefile{toc}{\contentsline {subsection}{\numberline {4.3}Simulation Result}{5}}
\@writefile{toc}{\contentsline {subsubsection}{\numberline {4.3.1}Forwarding}{5}}
\@writefile{lof}{\contentsline {figure}{\numberline {4}{\ignorespaces  Forwarding }}{5}}
\newlabel{4a}{{4}{5}}
\@writefile{toc}{\contentsline {subsubsection}{\numberline {4.3.2}Hazard Detection}{5}}
\@writefile{lof}{\contentsline {figure}{\numberline {5}{\ignorespaces  Hazard Detection }}{5}}
\newlabel{5a}{{5}{5}}
\@writefile{toc}{\contentsline {subsubsection}{\numberline {4.3.3}Result Validation}{5}}
\@writefile{lof}{\contentsline {figure}{\numberline {6}{\ignorespaces Result1 }}{5}}
\newlabel{6a}{{6}{5}}
\@writefile{lof}{\contentsline {figure}{\numberline {7}{\ignorespaces Result2 }}{5}}
\newlabel{7a}{{7}{5}}
\@writefile{lof}{\contentsline {figure}{\numberline {8}{\ignorespaces Result3 }}{5}}
\newlabel{8a}{{8}{5}}
\@writefile{toc}{\contentsline {section}{\numberline {5}Multiprocessor}{6}}
\@writefile{toc}{\contentsline {subsection}{\numberline {5.1}Design}{6}}
\@writefile{lof}{\contentsline {figure}{\numberline {9}{\ignorespaces multiprocessor entirety structure}}{6}}
\newlabel{9}{{9}{6}}
\@writefile{toc}{\contentsline {subsection}{\numberline {5.2}HW modelling}{6}}
\@writefile{toc}{\contentsline {subsubsection}{\numberline {5.2.1}Bus Control Unit}{6}}
\@writefile{lof}{\contentsline {figure}{\numberline {10}{\ignorespaces bus control I/O interface}}{6}}
\newlabel{10}{{10}{6}}
\@writefile{lof}{\contentsline {figure}{\numberline {11}{\ignorespaces bus control ASM}}{6}}
\newlabel{11}{{11}{6}}
\@writefile{toc}{\contentsline {subsubsection}{\numberline {5.2.2}Arbiter}{6}}
\@writefile{lof}{\contentsline {figure}{\numberline {12}{\ignorespaces Arbiter Decision Graph}}{6}}
\newlabel{11}{{12}{6}}
\@writefile{toc}{\contentsline {subsection}{\numberline {5.3}Simulation Result}{6}}
\@writefile{toc}{\contentsline {subsubsection}{\numberline {5.3.1}Stall}{6}}
\@writefile{lof}{\contentsline {figure}{\numberline {13}{\ignorespaces Stall Signal }}{7}}
\newlabel{9a}{{13}{7}}
\@writefile{toc}{\contentsline {subsubsection}{\numberline {5.3.2}Grant \& Apply}{7}}
\@writefile{lof}{\contentsline {figure}{\numberline {14}{\ignorespaces Grant \& Apply }}{7}}
\newlabel{10a}{{14}{7}}
\@writefile{lof}{\contentsline {figure}{\numberline {15}{\ignorespaces State Machine }}{7}}
\newlabel{11a}{{15}{7}}
\@writefile{toc}{\contentsline {subsubsection}{\numberline {5.3.3}State Machine}{7}}
\@writefile{toc}{\contentsline {subsubsection}{\numberline {5.3.4}Result}{8}}
\@writefile{lof}{\contentsline {figure}{\numberline {16}{\ignorespaces Result4}}{8}}
\newlabel{12a}{{16}{8}}
\@writefile{lof}{\contentsline {figure}{\numberline {17}{\ignorespaces Result5}}{8}}
\newlabel{13a}{{17}{8}}
\@writefile{lof}{\contentsline {figure}{\numberline {18}{\ignorespaces Result6}}{8}}
\newlabel{14a}{{18}{8}}
\@writefile{toc}{\contentsline {section}{\numberline {6}Conclusion}{8}}
\@writefile{toc}{\contentsline {section}{Appendix\nobreakspace  A: HL Program}{9}}
\@writefile{toc}{\contentsline {section}{Appendix\nobreakspace  B: Assemble code}{9}}
\@writefile{toc}{\contentsline {section}{Appendix\nobreakspace  C: Single Cycle Core}{11}}
\@writefile{toc}{\contentsline {section}{Appendix\nobreakspace  D: Single Cycle Core with Pipeline Design}{12}}
\@writefile{toc}{\contentsline {section}{Appendix\nobreakspace  E: Multi Cycle Core Design}{13}}
